\relax 
\@writefile{toc}{\contentsline {section}{\numberline {1}Code Design}{1}}
\@writefile{toc}{\contentsline {section}{\numberline {2}Finding $n_0$}{1}}
\@writefile{lol}{\contentsline {lstlisting}{operation\textunderscore output}{2}}
